Sports Data Class Blog - Trouble in Laker Land? How Lebron and Luka’s pairing looks this season.
…
Code

best_lakers_lineups <- lakers |>
  arrange(desc(PLUS_MINUS)) |>
  select(GROUP_NAME, GP, MIN, PTS, PLUS_MINUS)

best_lakers_lineups

# A tibble: 235 × 5
   GROUP_NAME                                       GP    MIN   PTS   PLUS_MINUS
   <chr>                                            <chr> <chr> <chr> <chr>     
 1 D. Ayton - L. Dončić - A. Reaves - J. LaRavia -… 3     9.61… 26    9         
 2 M. Smart - D. Ayton - R. Hachimura - J. LaRavia… 1     4.61… 20    9         
 3 J. Vanderbilt - L. Dončić - J. Hayes - N. Smith… 2     6.81… 23    8         
 4 L. James - G. Vincent - J. Hayes - A. Reaves - … 2     11.2… 33    7         
 5 L. Dončić - J. Hayes - A. Reaves - J. LaRavia -… 1     8.28… 21    7         
 6 M. Kleber - D. Ayton - G. Vincent - A. Reaves -… 1     5.88… 16    7         
 7 M. Smart - D. Ayton - L. Dončić - R. Hachimura … 1     2.85  10    7         
 8 M. Kleber - J. Vanderbilt - N. Smith Jr. - D. K… 1     11.2… 25    6         
 9 L. James - D. Ayton - G. Vincent - A. Reaves - … 2     9.68… 26    6         
10 M. Kleber - J. Vanderbilt - J. LaRavia - D. Kne… 1     8.3   19    6         
# ℹ 225 more rows

Code

lebron_lineups <- lakers |>
  filter(grepl("L. James", GROUP_NAME)) |>
  arrange(desc(PLUS_MINUS)) |>
  select(GROUP_NAME, GP, MIN, PTS, PLUS_MINUS)

lebron_lineups

# A tibble: 34 × 5
   GROUP_NAME                                       GP    MIN   PTS   PLUS_MINUS
   <chr>                                            <chr> <chr> <chr> <chr>     
 1 L. James - G. Vincent - J. Hayes - A. Reaves - … 2     11.2… 33    7         
 2 L. James - D. Ayton - G. Vincent - A. Reaves - … 2     9.68… 26    6         
 3 L. James - M. Smart - L. Dončić - G. Vincent - … 1     2.75  10    6         
 4 L. James - M. Smart - D. Ayton - G. Vincent - A… 1     2.26… 10    6         
 5 L. James - L. Dončić - G. Vincent - J. Hayes - … 2     1.33… 7     5         
 6 L. James - D. Ayton - L. Dončić - G. Vincent - … 2     3.88… 11    4         
 7 L. James - L. Dončić - G. Vincent - J. Hayes - … 3     12.3… 37    3         
 8 L. James - R. Hachimura - G. Vincent - J. Hayes… 1     3.06… 3     2         
 9 L. James - M. Kleber - L. Dončić - J. Hayes - A… 1     2.03… 2     2         
10 L. James - M. Smart - L. Dončić - R. Hachimura … 3     1.88… 6     2         
# ℹ 24 more rows
…
