Sports Data Class Blog - NFL Redzone EPA Reverse Engineering
…
Code

pbp2025_rz <- pbp2025 |>
  filter(
    play_type %in% c("pass", "run"),
    yardline_100 <= 20
  )

pbp2025_rz

── nflverse play by play data ──────────────────────────────────────────────────

ℹ Data updated: 2025-11-07 04:24:41 EST

# A tibble: 2,609 × 372
   play_id game_id     old_game_id home_team away_team season_type  week posteam
     <dbl> <chr>       <chr>       <chr>     <chr>     <chr>       <int> <chr>  
 1     575 2025_01_AR… 2025090705  NO        ARI       REG             1 ARI    
 2    1101 2025_01_AR… 2025090705  NO        ARI       REG             1 NO     
 3    1218 2025_01_AR… 2025090705  NO        ARI       REG             1 ARI    
 4    1240 2025_01_AR… 2025090705  NO        ARI       REG             1 ARI    
 5    1262 2025_01_AR… 2025090705  NO        ARI       REG             1 ARI    
 6    1318 2025_01_AR… 2025090705  NO        ARI       REG             1 ARI    
 7    1340 2025_01_AR… 2025090705  NO        ARI       REG             1 ARI    
 8    1994 2025_01_AR… 2025090705  NO        ARI       REG             1 ARI    
 9    2016 2025_01_AR… 2025090705  NO        ARI       REG             1 ARI    
10    2041 2025_01_AR… 2025090705  NO        ARI       REG             1 ARI    
# ℹ 2,599 more rows
# ℹ 364 more variables: posteam_type <chr>, defteam <chr>, side_of_field <chr>,
#   yardline_100 <dbl>, game_date <chr>, quarter_seconds_remaining <dbl>,
#   half_seconds_remaining <dbl>, game_seconds_remaining <dbl>,
#   game_half <chr>, quarter_end <dbl>, drive <dbl>, sp <dbl>, qtr <dbl>,
#   down <dbl>, goal_to_go <int>, time <chr>, yrdln <chr>, ydstogo <dbl>,
#   ydsnet <dbl>, desc <chr>, play_type <chr>, yards_gained <dbl>, …

Code

rz_week3 <- pbp2025_rz |>
  filter(week %in% 1:3) |>
  group_by(posteam) |>
  summarise(
    plays_week3 = n(),
    epa_week3 = sum(epa)
  )

rz_week3

# A tibble: 32 × 3
   posteam plays_week3 epa_week3
   <chr>         <int>     <dbl>
 1 ARI              24     0.762
 2 ATL              25    -6.51 
 3 BAL              24    -8.44 
 4 BUF              48     8.29 
 5 CAR              37    -0.523
 6 CHI              23     9.68 
 7 CIN              22     7.13 
 8 CLE              23     6.81 
 9 DAL              30    -5.45 
10 DEN              19     5.97 
# ℹ 22 more rows
I isolated all plays where the line of scrimmage was inside the opponent’s 20-yard line. Then, I calculated total EPA (expected points added) for each team before and after Week 3 to measure red-zone effectiveness.

Code

rz_week9 <- pbp2025_rz |>
  filter(week %in% 1:9) |>
  group_by(posteam) |>
  summarise(
    plays_week9 = n(),
    epa_week9 = sum(epa, na.rm = TRUE)
  )

rz_week9

# A tibble: 32 × 3
   posteam plays_week9 epa_week9
   <chr>         <int>     <dbl>
 1 ARI              80     0.105
 2 ATL              66    -3.32 
 3 BAL              74    -9.47 
 4 BUF              88    15.7  
 5 CAR              91     6.58 
 6 CHI              95    -2.74 
 7 CIN              76    19.6  
 8 CLE              77    -0.216
 9 DAL              98    -3.12 
10 DEN              78    25.8  
# ℹ 22 more rows

Code

rz_summary <- rz_week3 |>
  full_join(rz_week9, by = "posteam") |>
  arrange(posteam)

rz_week3

# A tibble: 32 × 3
   posteam plays_week3 epa_week3
   <chr>         <int>     <dbl>
 1 ARI              24     0.762
 2 ATL              25    -6.51 
 3 BAL              24    -8.44 
 4 BUF              48     8.29 
 5 CAR              37    -0.523
 6 CHI              23     9.68 
 7 CIN              22     7.13 
 8 CLE              23     6.81 
 9 DAL              30    -5.45 
10 DEN              19     5.97 
# ℹ 22 more rows

Code

rz_week9

# A tibble: 32 × 3
   posteam plays_week9 epa_week9
   <chr>         <int>     <dbl>
 1 ARI              80     0.105
 2 ATL              66    -3.32 
 3 BAL              74    -9.47 
 4 BUF              88    15.7  
 5 CAR              91     6.58 
 6 CHI              95    -2.74 
 7 CIN              76    19.6  
 8 CLE              77    -0.216
 9 DAL              98    -3.12 
10 DEN              78    25.8  
# ℹ 22 more rows

Code

rz_summary

# A tibble: 32 × 5
   posteam plays_week3 epa_week3 plays_week9 epa_week9
   <chr>         <int>     <dbl>       <int>     <dbl>
 1 ARI              24     0.762          80     0.105
 2 ATL              25    -6.51           66    -3.32 
 3 BAL              24    -8.44           74    -9.47 
 4 BUF              48     8.29           88    15.7  
 5 CAR              37    -0.523          91     6.58 
 6 CHI              23     9.68           95    -2.74 
 7 CIN              22     7.13           76    19.6  
 8 CLE              23     6.81           77    -0.216
 9 DAL              30    -5.45           98    -3.12 
10 DEN              19     5.97           78    25.8  
# ℹ 22 more rows
…
